<?xml version="1.0" encoding="UTF-8" standalone="no"?>
<!-- Created with Inkscape (http://www.inkscape.org/) -->

<svg
   xmlns:dc="http://purl.org/dc/elements/1.1/"
   xmlns:cc="http://creativecommons.org/ns#"
   xmlns:rdf="http://www.w3.org/1999/02/22-rdf-syntax-ns#"
   xmlns:svg="http://www.w3.org/2000/svg"
   xmlns="http://www.w3.org/2000/svg"
   xmlns:sodipodi="http://sodipodi.sourceforge.net/DTD/sodipodi-0.dtd"
   xmlns:inkscape="http://www.inkscape.org/namespaces/inkscape"
   width="210mm"
   height="297mm"
   viewBox="0 0 210 297"
   version="1.1"
   id="svg8"
   inkscape:version="0.92.1 r15371"
   sodipodi:docname="piknometr.svg"
   inkscape:export-filename="/home/capitan/piknometr.png"
   inkscape:export-xdpi="120.95238"
   inkscape:export-ydpi="120.95238">
  <defs
     id="defs2" />
  <sodipodi:namedview
     id="base"
     pagecolor="#ffffff"
     bordercolor="#666666"
     borderopacity="1.0"
     inkscape:pageopacity="0.0"
     inkscape:pageshadow="2"
     inkscape:zoom="0.35"
     inkscape:cx="126.4148"
     inkscape:cy="429.44727"
     inkscape:document-units="mm"
     inkscape:current-layer="layer1"
     showgrid="false"
     showguides="true"
     inkscape:guide-bbox="true"
     inkscape:snap-nodes="false"
     inkscape:snap-bbox="true"
     inkscape:window-width="1495"
     inkscape:window-height="1021"
     inkscape:window-x="0"
     inkscape:window-y="0"
     inkscape:window-maximized="0">
    <sodipodi:guide
       position="63.775134,109.59411"
       orientation="0,1"
       id="guide4487"
       inkscape:locked="false" />
    <sodipodi:guide
       position="84.457169,159.82718"
       orientation="1,0"
       id="guide4489"
       inkscape:locked="false" />
    <sodipodi:guide
       position="43.832202,118.93494"
       orientation="0,1"
       id="guide4491"
       inkscape:locked="false" />
    <sodipodi:guide
       position="43.030393,159.02537"
       orientation="0,1"
       id="guide4493"
       inkscape:locked="false" />
    <sodipodi:guide
       position="69.928998,200.10717"
       orientation="0,1"
       id="guide4495"
       inkscape:locked="false" />
    <sodipodi:guide
       position="69.642112,212.51712"
       orientation="0,1"
       id="guide4499"
       inkscape:locked="false" />
    <sodipodi:guide
       position="80.130951,182.51526"
       orientation="0,1"
       id="guide4516"
       inkscape:locked="false" />
  </sodipodi:namedview>
  <metadata
     id="metadata5">
    <rdf:RDF>
      <cc:Work
         rdf:about="">
        <dc:format>image/svg+xml</dc:format>
        <dc:type
           rdf:resource="http://purl.org/dc/dcmitype/StillImage" />
        <dc:title></dc:title>
      </cc:Work>
    </rdf:RDF>
  </metadata>
  <g
     inkscape:label="Layer 1"
     inkscape:groupmode="layer"
     id="layer1">
    <path
       style="fill:none;stroke:#000000;stroke-width:0.58795846px;stroke-linecap:butt;stroke-linejoin:miter;stroke-opacity:1"
       d="m 111.55564,98.090024 10.39758,-39.09283 h 18.22303 l -14.49533,39.87 C 177.10311,150.28938 170.79644,239.37854 150.0392,260.13578 H 57.645713 C 36.888471,239.37854 39.152172,150.28938 82.003996,98.867194 L 71.320864,58.997204 h 14.042895 l 10.432696,39.09282"
       id="path4485"
       inkscape:connector-curvature="0"
       sodipodi:nodetypes="cccccccccc" />
    <path
       style="fill:none;stroke:#000000;stroke-width:0.58795846px;stroke-linecap:butt;stroke-linejoin:miter;stroke-opacity:1"
       d="m 80.972612,38.685235 18.575683,70.262815 h 3.052785 V 38.685237 Z"
       id="path4497"
       inkscape:connector-curvature="0"
       sodipodi:nodetypes="ccccc" />
    <path
       style="fill:none;stroke:#000000;stroke-width:0.58795846px;stroke-linecap:butt;stroke-linejoin:miter;stroke-opacity:1"
       d="m 126.29863,38.73159 -18.57569,70.26281 h -3.05279 V 38.731592 Z"
       id="path4497-3"
       inkscape:connector-curvature="0"
       sodipodi:nodetypes="ccccc" />
  </g>
</svg>
